Homework 2
…
best_aqi_value <- min(final_weather_df$EPA_AQI, na.rm = TRUE)
worst_aqi_value <- max(final_weather_df$EPA_AQI, na.rm = TRUE)

cities_best_aqi <- final_weather_df %>% 
  filter(EPA_AQI == best_aqi_value) %>% 
  select(City, EPA_AQI)

cities_worst_aqi <- final_weather_df %>% 
  filter(EPA_AQI == worst_aqi_value) %>% 
  select(City, EPA_AQI)

cities_best_aqi

# A tibble: 22 × 2
   City       EPA_AQI
   <chr>        <int>
 1 Berlin           1
 2 Zunyi            1
 3 Rome             1
 4 Guayaquil        1
 5 Munich           1
 6 Casablanca       1
 7 Luanda           1
 8 Budapest         1
 9 Basra            1
10 Toronto          1
# ℹ 12 more rows
…
